code/IRDecode/IRDecode_testbench.vcd
$date
    Sat May 28 00:08:51 2016
$end
$version
    MyHDL 0.9.0
$end
$timescale
    1ns
$end

$scope module IRDecode_testbench $end
$var real 1 ! cycles $end
$var reg 1 " notHalt $end
$var reg 1 # clk $end
$var reg 1 $ BN $end
$var reg 1 % J $end
$var reg 32 & Ins $end
$var reg 1 ' BP $end
$var reg 8 ( Addr0 $end
$var reg 8 ) Addr1 $end
$var reg 8 * Addr2 $end
$var reg 1 + BEQ $end
$var reg 1 , NOP $end
$var reg 1 - BZ $end
$var reg 8 . op $end
$scope module ird_inst $end
$var reg 1 % J $end
$var reg 8 / internal_addr2 $end
$var reg 8 0 internal_addr1 $end
$var reg 1 # clk $end
$var reg 1 $ BN $end
$var reg 8 1 internal_addr0 $end
$var reg 32 & Ins $end
$var reg 1 ' BP $end
$var reg 8 ( Addr0 $end
$var reg 8 ) Addr1 $end
$var reg 8 * Addr2 $end
$var reg 8 2 internal_op $end
$var reg 1 + BEQ $end
$var reg 1 , NOP $end
$var reg 8 . op $end
$var reg 1 - BZ $end
$var reg 1 " notHalt $end
$upscope $end
$upscope $end

$enddefinitions $end
$dumpvars
s0 !
1"
0#
0$
0%
b00001011000010010000111100000001 &
0'
b00000000 (
b00000000 )
b00000000 *
0+
0,
0-
b00000000 .
b00000000 /
b00000000 0
b00000000 1
b00000000 2
$end
b00001011 2
b00001001 1
b00001111 0
b00000001 /
b00001011 .
b00001001 (
b00001111 )
b00000001 *
1$
#10
1#
b00001001000001000000010000000001 &
b00001001 2
b00000100 1
b00000100 0
b00001001 .
b00000100 (
b00000100 )
1+
0$
#20
0#
s1 !
#30
1#
b00000010000001110000101000001101 &
b00000010 2
b00000111 1
b00001010 0
b00001101 /
b00000010 .
b00000111 (
b00001010 )
b00001101 *
0+
#40
0#
s2 !
#50
1#
b00000001000000010000011100001100 &
b00000001 2
b00000001 1
b00000111 0
b00001100 /
b00000001 .
b00000001 (
b00000111 )
b00001100 *
#60
0#
s3 !
#70
1#
b00001010000010110000011000001010 &
b00001010 2
b00001011 1
b00000110 0
b00001010 /
b00001010 .
b00001011 (
b00000110 )
b00001010 *
1'
#80
0#
s4 !
#90
1#
b00000110000010110000010100000010 &
b00000110 2
b00000101 0
b00000010 /
b00000110 .
b00000101 )
b00000010 *
0'
#100
0#
s5 !
#110
1#
b00000010000000110000011000000100 &
b00000010 2
b00000011 1
b00000110 0
b00000100 /
b00000010 .
b00000011 (
b00000110 )
b00000100 *
#120
0#
s6 !
#130
1#
b00001000000000000000110100001000 &
b00001000 2
b00000000 1
b00001101 0
b00001000 /
b00001000 .
b00000000 (
b00001101 )
b00001000 *
1-
#140
0#
s7 !
#150
1#
b00001100000011010000101000001011 &
b00001100 2
b00001101 1
b00001010 0
b00001011 /
b00001100 .
b00001101 (
b00001010 )
b00001011 *
0-
1%
#160
0#
s8 !
#170
1#
b00000100000001000000001100000110 &
b00000100 2
b00000100 1
b00000011 0
b00000110 /
b00000100 .
b00000100 (
b00000011 )
b00000110 *
0%
#180
0#
s9 !
#190
1#
b00000100000001100000010100000001 &
b00000110 1
b00000101 0
b00000001 /
b00000110 (
b00000101 )
b00000001 *
#200
0#
s10 !
#210
1#
b00000111000001000000000100000101 &
b00000111 2
b00000100 1
b00000001 0
b00000101 /
b00000111 .
b00000100 (
b00000001 )
b00000101 *
#220
0#
s11 !
#230
1#
b00000010000011000000111000000011 &
b00000010 2
b00001100 1
b00001110 0
b00000011 /
b00000010 .
b00001100 (
b00001110 )
b00000011 *
#240
0#
s12 !
#250
1#
b00000010000010110000111000000110 &
b00001011 1
b00000110 /
b00001011 (
b00000110 *
#260
0#
s13 !
#270
1#
b00000000000000000000110100000111 &
b00000000 2
b00000000 1
b00001101 0
b00000111 /
b00000000 .
b00000000 (
b00001101 )
b00000111 *
#280
0#
s14 !
#290
1#
b00000001000011010000000100000000 &
b00000001 2
b00001101 1
b00000001 0
b00000000 /
b00000001 .
b00001101 (
b00000001 )
b00000000 *
#300
0#
s15 !
#310
1#
b00000001000010010000111000001100 &
b00001001 1
b00001110 0
b00001100 /
b00001001 (
b00001110 )
b00001100 *
#320
0#
s16 !
#330
1#
b00000100000000110000001100000010 &
b00000100 2
b00000011 1
b00000011 0
b00000010 /
b00000100 .
b00000011 (
b00000011 )
b00000010 *
#340
0#
s17 !
#350
1#
b00000110000000010000100000000010 &
b00000110 2
b00000001 1
b00001000 0
b00000110 .
b00000001 (
b00001000 )
#360
0#
s18 !
#370
1#
b00001011000001100000010100001011 &
b00001011 2
b00000110 1
b00000101 0
b00001011 /
b00001011 .
b00000110 (
b00000101 )
b00001011 *
1$
#380
0#
s19 !
#390
1#
b00001011000010100000110000000101 &
b00001010 1
b00001100 0
b00000101 /
b00001010 (
b00001100 )
b00000101 *
#400
0#
s20 !
#410
1#
b00000000000010110000010000000011 &
b00000000 2
b00001011 1
b00000100 0
b00000011 /
b00000000 .
b00001011 (
b00000100 )
b00000011 *
0$
#420
0#
s21 !
#430
1#
b00001011000001110000100000000000 &
b00001011 2
b00000111 1
b00001000 0
b00000000 /
b00001011 .
b00000111 (
b00001000 )
b00000000 *
1$
#440
0#
s22 !
#450
1#
b00000101000011010000101100000010 &
b00000101 2
b00001101 1
b00001011 0
b00000010 /
b00000101 .
b00001101 (
b00001011 )
b00000010 *
0$
#460
0#
s23 !
#470
1#
b00000011000010100000011000000101 &
b00000011 2
b00001010 1
b00000110 0
b00000101 /
b00000011 .
b00001010 (
b00000110 )
b00000101 *
#480
0#
s24 !
#490
1#
b00000101000011010000101100001011 &
b00000101 2
b00001101 1
b00001011 0
b00001011 /
b00000101 .
b00001101 (
b00001011 )
b00001011 *
#500
0#
s25 !
