code/IRDecode/IRDecode_testbench.vcd
$date
    Sun May 29 19:31:45 2016
$end
$version
    MyHDL 0.9.0
$end
$timescale
    1ns
$end

$scope module IRDecode_testbench $end
$var real 1 ! cycles $end
$var reg 1 " notHalt $end
$var reg 1 # clk $end
$var reg 1 $ BN $end
$var reg 1 % J $end
$var reg 32 & Ins $end
$var reg 1 ' BP $end
$var reg 8 ( Addr0 $end
$var reg 8 ) Addr1 $end
$var reg 8 * Addr2 $end
$var reg 1 + BEQ $end
$var reg 1 , NOP $end
$var reg 1 - BZ $end
$var reg 8 . op $end
$scope module ird_inst $end
$var reg 1 % J $end
$var reg 8 / internal_addr2 $end
$var reg 8 0 internal_addr1 $end
$var reg 1 # clk $end
$var reg 1 $ BN $end
$var reg 8 1 internal_addr0 $end
$var reg 32 & Ins $end
$var reg 1 ' BP $end
$var reg 8 ( Addr0 $end
$var reg 8 ) Addr1 $end
$var reg 8 * Addr2 $end
$var reg 8 2 internal_op $end
$var reg 1 + BEQ $end
$var reg 1 , NOP $end
$var reg 8 . op $end
$var reg 1 - BZ $end
$var reg 1 " notHalt $end
$upscope $end
$upscope $end

$enddefinitions $end
$dumpvars
s0 !
1"
0#
0$
0%
b00000011000000000000110000000011 &
0'
b00000000 (
b00000000 )
b00000000 *
0+
0,
0-
b00000000 .
b00000000 /
b00000000 0
b00000000 1
b00000000 2
$end
#10
1#
b00001001000000010000000100000110 &
b00000011 2
b00001100 0
b00000011 /
#20
0#
s1 !
#30
1#
b00000011 .
b00001100 )
b00000011 *
b00001001 2
b00000001 1
b00000001 0
b00000110 /
b00000010000000000000011100001001 &
#40
0#
s2 !
#50
1#
b00000101000000000000100000001111 &
b00000010 2
b00000000 1
b00000111 0
b00001001 /
b00001001 .
b00000001 (
b00000001 )
b00000110 *
1+
#60
0#
s3 !
#70
1#
b00000010 .
b00000000 (
b00000111 )
b00001001 *
0+
b00000101 2
b00001000 0
b00001111 /
b00000001000011110000101000000000 &
#80
0#
s4 !
#90
1#
b00000000000010010000100100000110 &
b00000001 2
b00001111 1
b00001010 0
b00000000 /
b00000101 .
b00001000 )
b00001111 *
#100
0#
s5 !
#110
1#
b00000001 .
b00001111 (
b00001010 )
b00000000 *
b00000000 2
b00001001 1
b00001001 0
b00000110 /
b00001110000001110000111000001111 &
#120
0#
s6 !
#130
1#
b00001111000001100000001100000101 &
b00001110 2
b00000111 1
b00001110 0
b00001111 /
b00000000 .
b00001001 (
b00001001 )
b00000110 *
#140
0#
s7 !
#150
1#
b00001110 .
b00000111 (
b00001110 )
b00001111 *
1,
b00001111 2
b00000110 1
b00000011 0
b00000101 /
b00001000000000010000100100000011 &
#160
0#
s8 !
#170
1#
b00001010000010110000011000000010 &
b00001000 2
b00000001 1
b00001001 0
b00000011 /
b00001111 .
b00000110 (
b00000011 )
b00000101 *
0,
#180
0#
s9 !
#190
1#
b00001000 .
b00000001 (
b00001001 )
b00000011 *
1-
b00001010 2
b00001011 1
b00000110 0
b00000010 /
b00000011000000010000110000001111 &
#200
0#
s10 !
#210
1#
b00000100000011010000111100001001 &
b00000011 2
b00000001 1
b00001100 0
b00001111 /
b00001010 .
b00001011 (
b00000110 )
b00000010 *
0-
1'
#220
0#
s11 !
#230
1#
b00000011 .
b00000001 (
b00001100 )
b00001111 *
0'
b00000100 2
b00001101 1
b00001111 0
b00001001 /
b00001111000011100000101000000101 &
#240
0#
s12 !
#250
1#
b00001000000010010000100100000011 &
b00001111 2
b00001110 1
b00001010 0
b00000101 /
b00000100 .
b00001101 (
b00001111 )
b00001001 *
#260
0#
s13 !
#270
1#
b00001111 .
b00001110 (
b00001010 )
b00000101 *
b00001000 2
b00001001 1
b00001001 0
b00000011 /
b00001001000001000000001100000001 &
#280
0#
s14 !
#290
1#
b00000010000001010000010100001000 &
b00001001 2
b00000100 1
b00000011 0
b00000001 /
b00001000 .
b00001001 (
b00001001 )
b00000011 *
1-
#300
0#
s15 !
#310
1#
b00001001 .
b00000100 (
b00000011 )
b00000001 *
0-
1+
b00000010 2
b00000101 1
b00000101 0
b00001000 /
b00000000000000010000000000000101 &
#320
0#
s16 !
#330
1#
b00001111000010100000001000000011 &
b00000000 2
b00000001 1
b00000000 0
b00000101 /
b00000010 .
b00000101 (
b00000101 )
b00001000 *
0+
#340
0#
s17 !
#350
1#
b00000000 .
b00000001 (
b00000000 )
b00000101 *
b00001111 2
b00001010 1
b00000010 0
b00000011 /
b00000110000011110000000000000110 &
#360
0#
s18 !
#370
1#
b00000000000010110000001100000000 &
b00000110 2
b00001111 1
b00000000 0
b00000110 /
b00001111 .
b00001010 (
b00000010 )
b00000011 *
#380
0#
s19 !
#390
1#
b00000110 .
b00001111 (
b00000000 )
b00000110 *
b00000000 2
b00001011 1
b00000011 0
b00000000 /
b00001001000011000000011000001000 &
#400
0#
s20 !
#410
1#
b00000110000001010000110000001101 &
b00001001 2
b00001100 1
b00000110 0
b00001000 /
b00000000 .
b00001011 (
b00000011 )
b00000000 *
#420
0#
s21 !
#430
1#
b00001001 .
b00001100 (
b00000110 )
b00001000 *
1+
b00000110 2
b00000101 1
b00001100 0
b00001101 /
b00000111000011010000000000000110 &
#440
0#
s22 !
#450
1#
b00000110000001110000010000001000 &
b00000111 2
b00001101 1
b00000000 0
b00000110 /
b00000110 .
b00000101 (
b00001100 )
b00001101 *
0+
#460
0#
s23 !
#470
1#
b00000111 .
b00001101 (
b00000000 )
b00000110 *
b00000110 2
b00000111 1
b00000100 0
b00001000 /
b00000100000010000000100100000010 &
#480
0#
s24 !
#490
1#
b00001011000010010000001100001011 &
b00000100 2
b00001000 1
b00001001 0
b00000010 /
b00000110 .
b00000111 (
b00000100 )
b00001000 *
#500
0#
s25 !
