code/PC/Test/test5.vcd
$date
    Wed May 25 15:06:06 2016
$end
$version
    MyHDL 0.9.0
$end
$timescale
    1ns
$end

$scope module pc_testbench $end
$var reg 1 ! load $end
$var reg 32 " count $end
$var reg 1 # en $end
$var reg 32 $ addr $end
$var reg 1 % clk $end
$var reg 32 & output $end
$scope module pc_inst $end
$var reg 1 ! load $end
$var reg 32 & output $end
$var reg 1 # en $end
$var reg 32 $ value $end
$upscope $end
$upscope $end

$enddefinitions $end
$dumpvars
0!
b00000000000000000000000000000000 "
0#
b00000000000000000000000000000000 $
0%
b00000000000000000000000000000000 &
$end
#10
1%
#20
0%
1#
b00000000000000000000000000000100 &
b00000000000000000000000000000001 "
#30
1%
#40
0%
0#
b00000000000000000000000000000010 "
#50
1%
#60
0%
1#
b00000000000000000000000000001000 &
b00000000000000000000000000000011 "
#70
1%
#80
0%
0#
b00000000000000000000000000000100 "
#90
1%
#100
0%
1#
b00000000000000000000000000001100 &
b00000000000000000000000000000101 "
#110
1%
#120
0%
0#
b00000000000000000000000000000110 "
#130
1%
#140
0%
1#
b00000000000000000000000000010000 &
b00000000000000000000000000000111 "
#150
1%
#160
0%
0#
b00000000000000000000000000001000 "
#170
1%
#180
0%
1#
1!
b00000000000000000000000000001000 $
b00000000000000000000000000010100 &
b00000000000000000000000000001001 "
b00000000000000000000000000001000 &
#190
1%
#200
0%
0#
b00000000000000000000000000001010 "
#210
1%
#220
0%
1#
b00000000000000000000000000001011 "
#230
1%
#240
0%
0#
b00000000000000000000000000001100 "
#250
1%
#260
0%
1#
0!
b00000000000000000000000000000000 $
b00000000000000000000000000001101 "
b00000000000000000000000000001100 &
#270
1%
#280
0%
0#
b00000000000000000000000000001110 "
#290
1%
#300
0%
1#
b00000000000000000000000000010000 &
b00000000000000000000000000001111 "
#310
1%
#320
0%
0#
b00000000000000000000000000010000 "
#330
1%
#340
0%
1#
b00000000000000000000000000010100 &
b00000000000000000000000000010001 "
#350
1%
#360
0%
0#
b00000000000000000000000000010010 "
#370
1%
#380
0%
1#
1!
b00000000000000000000000000001000 $
b00000000000000000000000000011000 &
b00000000000000000000000000010011 "
b00000000000000000000000000001000 &
#390
1%
#400
0%
0#
b00000000000000000000000000010100 "
#410
1%
#420
0%
1#
0!
b00000000000000000000000000000000 $
b00000000000000000000000000010101 "
b00000000000000000000000000001100 &
#430
1%
#440
0%
0#
b00000000000000000000000000010110 "
#450
1%
#460
0%
1#
b00000000000000000000000000010000 &
b00000000000000000000000000010111 "
#470
1%
#480
0%
0#
b00000000000000000000000000011000 "
#490
1%
#500
0%
1#
b00000000000000000000000000010100 &
b00000000000000000000000000011001 "
#510
1%
#520
0%
0#
b00000000000000000000000000011010 "
#530
1%
#540
0%
1#
1!
b00000000000000000000000000011000 &
b00000000000000000000000000011011 "
b00000000000000000000000000000000 &
#550
1%
#560
0%
0#
b00000000000000000000000000011100 "
#570
1%
#580
0%
1#
b00000000000000000000000000000100 $
b00000000000000000000000000011101 "
#590
1%
#600
0%
0#
b00000000000000000000000000011110 "
#610
1%
#620
0%
1#
b00000000000000000000000000000000 $
b00000000000000000000000000000100 &
b00000000000000000000000000011111 "
#630
1%
#640
0%
0#
b00000000000000000000000000100000 "
#650
1%
#660
0%
1#
0!
b00000000000000000000000000000000 &
b00000000000000000000000000100001 "
b00000000000000000000000000000100 &
#670
1%
#680
0%
0#
b00000000000000000000000000100010 "
#690
1%
#700
0%
1#
b00000000000000000000000000001000 &
b00000000000000000000000000100011 "
#710
1%
#720
0%
0#
b00000000000000000000000000100100 "
#730
1%
#740
0%
1#
1!
b00000000000000000000000000001000 $
b00000000000000000000000000001100 &
b00000000000000000000000000100101 "
b00000000000000000000000000001000 &
#750
1%
#760
0%
0#
b00000000000000000000000000100110 "
#770
1%
#780
0%
1#
b00000000000000000000000000000100 $
b00000000000000000000000000100111 "
#790
1%
#800
0%
0#
b00000000000000000000000000101000 "
#810
1%
#820
0%
1#
b00000000000000000000000000001100 $
b00000000000000000000000000000100 &
b00000000000000000000000000101001 "
#830
1%
#840
0%
0#
b00000000000000000000000000101010 "
#850
1%
#860
0%
1#
0!
b00000000000000000000000000000000 $
b00000000000000000000000000001100 &
b00000000000000000000000000101011 "
b00000000000000000000000000010000 &
#870
1%
#880
0%
0#
b00000000000000000000000000101100 "
#890
1%
#900
0%
1#
b00000000000000000000000000010100 &
b00000000000000000000000000101101 "
#910
1%
#920
0%
0#
b00000000000000000000000000101110 "
#930
1%
#940
0%
1#
1!
b00000000000000000000000000001000 $
b00000000000000000000000000011000 &
b00000000000000000000000000101111 "
b00000000000000000000000000001000 &
#950
1%
#960
0%
0#
b00000000000000000000000000110000 "
#970
1%
#980
0%
1#
b00000000000000000000000000001100 $
b00000000000000000000000000110001 "
#990
1%
#1000
0%
0#
b00000000000000000000000000110010 "
