code/Memory/EEPROM/pc_with_rom_testbench.vcd
$date
    Sun May 29 19:12:17 2016
$end
$version
    MyHDL 0.9.0
$end
$timescale
    1ns
$end

$scope module pc_with_rom_testbench $end
$var reg 1 ! load $end
$var reg 1 " en $end
$var reg 32 # dout $end
$var real 1 $ addr $end
$var reg 1 % clk $end
$var real 1 & output $end
$var real 1 ' load_addr $end
$scope module mem_inst $end
$var reg 32 # dout $end
$var real 1 & addr $end
$var reg 1 % clk $end
$var reg 32 ( mem(0) $end
$var reg 32 ) mem(1) $end
$var reg 32 * mem(2) $end
$var reg 32 + mem(3) $end
$var reg 32 , mem(4) $end
$var reg 32 - mem(5) $end
$var reg 32 . mem(6) $end
$var reg 32 / mem(7) $end
$var reg 32 0 mem(8) $end
$var reg 32 1 mem(9) $end
$var reg 32 2 mem(10) $end
$var reg 32 3 mem(11) $end
$var reg 32 4 mem(12) $end
$var reg 32 5 mem(13) $end
$var reg 32 6 mem(14) $end
$var reg 32 7 mem(15) $end
$var reg 32 8 mem(16) $end
$var reg 32 9 mem(17) $end
$var reg 32 : mem(18) $end
$var reg 32 ; mem(19) $end
$var reg 32 < mem(20) $end
$var reg 32 = mem(21) $end
$var reg 32 > mem(22) $end
$var reg 32 ? mem(23) $end
$var reg 32 @ mem(24) $end
$var reg 32 A mem(25) $end
$var reg 32 B mem(26) $end
$var reg 32 C mem(27) $end
$var reg 32 D mem(28) $end
$var reg 32 E mem(29) $end
$var reg 32 F mem(30) $end
$var reg 32 G mem(31) $end
$var reg 32 H mem(32) $end
$var reg 32 I mem(33) $end
$var reg 32 J mem(34) $end
$var reg 32 K mem(35) $end
$var reg 32 L mem(36) $end
$var reg 32 M mem(37) $end
$var reg 32 N mem(38) $end
$var reg 32 O mem(39) $end
$var reg 32 P mem(40) $end
$var reg 32 Q mem(41) $end
$var reg 32 R mem(42) $end
$var reg 32 S mem(43) $end
$var reg 32 T mem(44) $end
$var reg 32 U mem(45) $end
$var reg 32 V mem(46) $end
$var reg 32 W mem(47) $end
$var reg 32 X mem(48) $end
$var reg 32 Y mem(49) $end
$var reg 32 Z mem(50) $end
$var reg 32 [ mem(51) $end
$var reg 32 \ mem(52) $end
$var reg 32 ] mem(53) $end
$var reg 32 ^ mem(54) $end
$var reg 32 _ mem(55) $end
$var reg 32 ` mem(56) $end
$var reg 32 a mem(57) $end
$var reg 32 b mem(58) $end
$var reg 32 c mem(59) $end
$var reg 32 d mem(60) $end
$var reg 32 e mem(61) $end
$var reg 32 f mem(62) $end
$var reg 32 g mem(63) $end
$var reg 32 h mem(64) $end
$var reg 32 i mem(65) $end
$var reg 32 j mem(66) $end
$var reg 32 k mem(67) $end
$var reg 32 l mem(68) $end
$var reg 32 m mem(69) $end
$upscope $end
$scope module pc_inst $end
$var reg 1 ! load $end
$var real 1 & output $end
$var reg 1 " en $end
$var real 1 ' value $end
$upscope $end
$upscope $end

$enddefinitions $end
$dumpvars
0!
1"
b00000000000000000000000000000000 #
s0 $
0%
s0 &
s0 '
b00000000100011000001011110000111 (
b00000001010101001101010000100110 )
b00000010000110110010011010101111 *
b00000011010101101100111111110000 +
b00000100000110011101010111111000 ,
b00000101001001001111011111111110 -
b00001100000000000000000000000000 .
b00000000100011000001011110000111 /
b00000001010101001101010000100110 0
b00000010000110110010011010101111 1
b00000011010101101100111111110000 2
b00000100000110011101010111111000 3
b00000101001001001111011111111110 4
b00001100000000000000000000000000 5
b00000000100011000001011110000111 6
b00000001010101001101010000100110 7
b00000010000110110010011010101111 8
b00000011010101101100111111110000 9
b00000100000110011101010111111000 :
b00000101001001001111011111111110 ;
b00001100000000000000000000000000 <
b00000000100011000001011110000111 =
b00000001010101001101010000100110 >
b00000010000110110010011010101111 ?
b00000011010101101100111111110000 @
b00000100000110011101010111111000 A
b00000101001001001111011111111110 B
b00001100000000000000000000000000 C
b00000000100011000001011110000111 D
b00000001010101001101010000100110 E
b00000010000110110010011010101111 F
b00000011010101101100111111110000 G
b00000100000110011101010111111000 H
b00000101001001001111011111111110 I
b00001100000000000000000000000000 J
b00000000100011000001011110000111 K
b00000001010101001101010000100110 L
b00000010000110110010011010101111 M
b00000011010101101100111111110000 N
b00000100000110011101010111111000 O
b00000101001001001111011111111110 P
b00001100000000000000000000000000 Q
b00000000100011000001011110000111 R
b00000001010101001101010000100110 S
b00000010000110110010011010101111 T
b00000011010101101100111111110000 U
b00000100000110011101010111111000 V
b00000101001001001111011111111110 W
b00001100000000000000000000000000 X
b00000000100011000001011110000111 Y
b00000001010101001101010000100110 Z
b00000010000110110010011010101111 [
b00000011010101101100111111110000 \
b00000100000110011101010111111000 ]
b00000101001001001111011111111110 ^
b00001100000000000000000000000000 _
b00000000100011000001011110000111 `
b00000001010101001101010000100110 a
b00000010000110110010011010101111 b
b00000011010101101100111111110000 c
b00000100000110011101010111111000 d
b00000101001001001111011111111110 e
b00001100000000000000000000000000 f
b00000000100011000001011110000111 g
b00000001010101001101010000100110 h
b00000010000110110010011010101111 i
b00000011010101101100111111110000 j
b00000100000110011101010111111000 k
b00000101001001001111011111111110 l
b00001100000000000000000000000000 m
$end
#10
1%
b00000000100011000001011110000111 #
#20
0%
0"
#30
1%
#40
0%
1"
s1 &
#50
1%
b00000001010101001101010000100110 #
#60
0%
0"
#70
1%
#80
0%
1"
s2 &
#90
1%
b00000010000110110010011010101111 #
#100
0%
0"
#110
1%
#120
0%
1"
s3 &
#130
1%
b00000011010101101100111111110000 #
#140
0%
0"
#150
1%
#160
0%
1"
s4 &
#170
1%
b00000100000110011101010111111000 #
#180
0%
0"
#190
1%
#200
0%
1"
s5 &
#210
1%
b00000101001001001111011111111110 #
#220
0%
0"
#230
1%
#240
0%
1"
s6 &
#250
1%
b00001100000000000000000000000000 #
#260
0%
0"
#270
1%
#280
0%
1"
s7 &
#290
1%
b00000000100011000001011110000111 #
#300
0%
0"
#310
1%
#320
0%
1"
s8 &
#330
1%
b00000001010101001101010000100110 #
#340
0%
0"
#350
1%
#360
0%
1"
s9 &
#370
1%
b00000010000110110010011010101111 #
#380
0%
0"
#390
1%
#400
0%
1"
s10 &
#410
1%
b00000011010101101100111111110000 #
#420
0%
0"
#430
1%
#440
0%
1"
s11 &
#450
1%
b00000100000110011101010111111000 #
#460
0%
0"
#470
1%
#480
0%
1"
s12 &
#490
1%
b00000101001001001111011111111110 #
#500
0%
0"
#510
1%
#520
0%
1"
s13 &
#530
1%
b00001100000000000000000000000000 #
#540
0%
0"
#550
1%
#560
0%
1"
s14 &
#570
1%
b00000000100011000001011110000111 #
#580
0%
0"
#590
1%
#600
0%
1"
s15 &
#610
1%
b00000001010101001101010000100110 #
#620
0%
0"
#630
1%
#640
0%
1"
s16 &
#650
1%
b00000010000110110010011010101111 #
#660
0%
0"
#670
1%
#680
0%
1"
s17 &
#690
1%
b00000011010101101100111111110000 #
#700
0%
0"
#710
1%
#720
0%
1"
s18 &
#730
1%
b00000100000110011101010111111000 #
#740
0%
0"
#750
1%
#760
0%
1"
s19 &
#770
1%
b00000101001001001111011111111110 #
#780
0%
0"
#790
1%
#800
0%
1"
s20 &
#810
1%
b00001100000000000000000000000000 #
#820
0%
0"
#830
1%
#840
0%
1"
s21 &
#850
1%
b00000000100011000001011110000111 #
#860
0%
0"
#870
1%
#880
0%
1"
s22 &
#890
1%
b00000001010101001101010000100110 #
#900
0%
0"
#910
1%
#920
0%
1"
s23 &
#930
1%
b00000010000110110010011010101111 #
#940
0%
0"
#950
1%
#960
0%
1"
s24 &
#970
1%
b00000011010101101100111111110000 #
#980
0%
0"
#990
1%
#1000
0%
1"
s25 &
#1010
1%
b00000100000110011101010111111000 #
#1020
0%
0"
#1030
1%
#1040
0%
1"
s26 &
#1050
1%
b00000101001001001111011111111110 #
#1060
0%
0"
#1070
1%
#1080
0%
1"
s27 &
#1090
1%
b00001100000000000000000000000000 #
#1100
0%
0"
#1110
1%
#1120
0%
1"
s28 &
#1130
1%
b00000000100011000001011110000111 #
#1140
0%
0"
#1150
1%
#1160
0%
1"
s29 &
#1170
1%
b00000001010101001101010000100110 #
#1180
0%
0"
#1190
1%
#1200
0%
1"
s30 &
#1210
1%
b00000010000110110010011010101111 #
#1220
0%
0"
#1230
1%
#1240
0%
1"
s31 &
#1250
1%
b00000011010101101100111111110000 #
#1260
0%
0"
#1270
1%
#1280
0%
1"
s32 &
#1290
1%
1!
b00000100000110011101010111111000 #
s0 &
#1300
0%
0"
#1310
1%
b00000000100011000001011110000111 #
0!
#1320
0%
1"
s1 &
#1330
1%
b00000001010101001101010000100110 #
#1340
0%
0"
#1350
1%
#1360
0%
1"
s2 &
#1370
1%
b00000010000110110010011010101111 #
#1380
0%
0"
#1390
1%
#1400
0%
1"
s3 &
#1410
1%
b00000011010101101100111111110000 #
#1420
0%
0"
#1430
1%
#1440
0%
1"
s4 &
#1450
1%
b00000100000110011101010111111000 #
#1460
0%
0"
#1470
1%
#1480
0%
1"
s5 &
#1490
1%
b00000101001001001111011111111110 #
#1500
0%
0"
#1510
1%
#1520
0%
1"
s6 &
#1530
1%
b00001100000000000000000000000000 #
#1540
0%
0"
#1550
1%
#1560
0%
1"
s7 &
#1570
1%
b00000000100011000001011110000111 #
#1580
0%
0"
#1590
1%
#1600
0%
1"
s8 &
#1610
1%
b00000001010101001101010000100110 #
#1620
0%
0"
#1630
1%
#1640
0%
1"
s9 &
#1650
1%
b00000010000110110010011010101111 #
#1660
0%
0"
#1670
1%
#1680
0%
1"
s10 &
#1690
1%
b00000011010101101100111111110000 #
#1700
0%
0"
#1710
1%
#1720
0%
1"
s11 &
#1730
1%
b00000100000110011101010111111000 #
#1740
0%
0"
#1750
1%
#1760
0%
1"
s12 &
#1770
1%
b00000101001001001111011111111110 #
#1780
0%
0"
#1790
1%
#1800
0%
1"
s13 &
#1810
1%
b00001100000000000000000000000000 #
#1820
0%
0"
#1830
1%
#1840
0%
1"
s14 &
#1850
1%
b00000000100011000001011110000111 #
#1860
0%
0"
#1870
1%
#1880
0%
1"
s15 &
#1890
1%
b00000001010101001101010000100110 #
#1900
0%
0"
#1910
1%
#1920
0%
1"
s16 &
#1930
1%
b00000010000110110010011010101111 #
#1940
0%
0"
#1950
1%
#1960
0%
1"
s17 &
#1970
1%
b00000011010101101100111111110000 #
#1980
0%
0"
#1990
1%
#2000
0%
1"
s18 &
