code/ALU/ALU_testbench.vcd
$date
    Thu May 26 23:20:40 2016
$end
$version
    MyHDL 0.9.0
$end
$timescale
    1ns
$end

$scope module ALU_testbench $end
$var reg 16 ! a $end
$var reg 16 " b $end
$var reg 1 # E $end
$var reg 1 $ clk $end
$var reg 1 % rdy $end
$var reg 1 & N $end
$var reg 1 ' P $end
$var real 1 ( cycles $end
$var reg 16 ) result $end
$var reg 1 * Z $end
$var reg 8 + op $end
$scope module ALU_inst $end
$var reg 16 ! a $end
$var reg 16 " b $end
$var reg 1 # E $end
$var reg 1 $ clk $end
$var reg 1 % rdy $end
$var reg 16 , prop $end
$var reg 1 ' P $end
$var reg 1 & N $end
$var reg 16 ) result $end
$var reg 1 * Z $end
$var reg 8 + op $end
$upscope $end
$upscope $end

$enddefinitions $end
$dumpvars
b1101000100111111 !
b1001001100100101 "
0#
0$
0%
0&
0'
s0 (
b0000000000000000 )
0*
b00000100 +
b0000000000000000 ,
$end
b0110010001100100 ,
1*
#2
1%
#10
1$
#20
0$
s1 (
#30
1$
#40
0$
s2 (
#50
1$
#60
0$
s3 (
#70
1$
#80
0$
s4 (
#90
1$
#100
0$
s5 (
#110
1$
#120
0$
s6 (
#130
1$
#140
0$
s7 (
#150
1$
#160
0$
s8 (
b0110010001100100 )
0*
1'
b00000101 +
b0000101100100101 !
b0010011101011111 "
b1110001111000110 ,
#162
0%
#170
1$
#180
0$
s9 (
#190
1$
#200
0$
s10 (
#210
1$
#220
0$
s11 (
#230
1$
#240
0$
s12 (
#250
1$
#260
0$
s13 (
#270
1$
#280
0$
s14 (
#290
1$
#300
0$
s15 (
#310
1$
#320
0$
s16 (
b1110001111000110 )
b00000110 +
b0110100110100011 !
b1111000000111001 "
b0101010101001011 ,
#322
1%
#330
1$
#340
0$
s17 (
#350
1$
#360
0$
s18 (
#370
1$
#380
0$
s19 (
#390
1$
#400
0$
s20 (
#410
1$
#420
0$
s21 (
#430
1$
#440
0$
s22 (
#450
1$
#460
0$
s23 (
#470
1$
#480
0$
s24 (
#490
1$
#500
0$
s25 (
#510
1$
#520
0$
s26 (
#530
1$
#540
0$
s27 (
#550
1$
#560
0$
s28 (
#570
1$
#580
0$
s29 (
#590
1$
#600
0$
s30 (
#610
1$
#620
0$
s31 (
#630
1$
#640
0$
s32 (
#650
1$
#660
0$
s33 (
#670
1$
#680
0$
s34 (
#690
1$
#700
0$
s35 (
#710
1$
#720
0$
s36 (
#730
1$
#740
0$
s37 (
#750
1$
#760
0$
s38 (
#770
1$
#780
0$
s39 (
#790
1$
#800
0$
s40 (
#810
1$
#820
0$
s41 (
#830
1$
#840
0$
s42 (
#850
1$
#860
0$
s43 (
#870
1$
#880
0$
s44 (
#890
1$
#900
0$
s45 (
#910
1$
#920
0$
s46 (
#930
1$
#940
0$
s47 (
#950
1$
#960
0$
s48 (
#970
1$
#980
0$
s49 (
#990
1$
#1000
0$
s50 (
