code/ALU/ALU_testbench.vcd
$date
    Sat May 28 17:52:16 2016
$end
$version
    MyHDL 0.9.0
$end
$timescale
    1ns
$end

$scope module ALU_testbench $end
$var reg 16 ! a $end
$var reg 16 " b $end
$var reg 1 # E $end
$var reg 1 $ clk $end
$var reg 1 % rdy $end
$var reg 1 & N $end
$var reg 1 ' P $end
$var real 1 ( cycles $end
$var reg 16 ) result $end
$var reg 1 * Z $end
$var reg 8 + op $end
$scope module ALU_inst $end
$var reg 16 ! a $end
$var reg 16 , mod_mult $end
$var reg 16 " b $end
$var reg 1 # E $end
$var reg 16 - addition $end
$var reg 1 % rdy $end
$var reg 16 . subtraction $end
$var reg 1 & N $end
$var reg 1 ' P $end
$var reg 16 ) result $end
$var reg 8 + op $end
$var reg 16 / multiplication $end
$var reg 1 * Z $end
$var reg 16 0 exclusiveOR $end
$var reg 16 1 normalOR $end
$var reg 16 2 normalAND $end
$upscope $end
$upscope $end

$enddefinitions $end
$dumpvars
b0110111100011010 !
b0011100101010001 "
0#
0$
0%
0&
0'
s0 (
b0000000000000000 )
0*
b00000000 +
b0000000000000000 ,
b0000000000000000 -
b0000000000000000 .
b0000000000000000 /
b0000000000000000 0
b0000000000000000 1
b0000000000000000 2
$end
1*
#10
1$
#20
b1010100001101011 -
0$
b1010100001101011 )
0*
1'
1%
b00000001 +
b1111110001000001 !
b1011111001110011 "
s1 (
#25
0%
#30
1$
#40
b0011110111001110 .
0$
b0011110111001110 )
1%
b00000010 +
b1001101101110010 !
b0111000101011001 "
s2 (
#45
0%
#50
1$
#60
0$
s3 (
#70
1$
#80
0$
s4 (
#90
1$
#100
0$
s5 (
#110
1$
#120
0$
s6 (
#130
1$
#140
0$
s7 (
#150
1$
#160
0$
s8 (
#170
1$
#180
0$
s9 (
#190
1$
#200
0$
s10 (
#210
1$
#220
0$
s11 (
#230
1$
#240
0$
s12 (
#250
1$
#260
0$
s13 (
#270
1$
#280
0$
s14 (
#290
1$
#300
0$
s15 (
#310
1$
#320
0$
s16 (
#330
1$
#340
0$
s17 (
#350
1$
#360
0$
s18 (
#370
1$
#380
0$
s19 (
#390
1$
#400
0$
s20 (
#410
1$
#420
0$
s21 (
#430
1$
#440
0$
s22 (
#450
1$
#460
0$
s23 (
#470
1$
#480
0$
s24 (
#490
1$
#500
0$
s25 (
#510
1$
#520
0$
s26 (
#530
1$
#540
0$
s27 (
#550
1$
#560
0$
s28 (
#570
1$
#580
0$
s29 (
#590
1$
#600
0$
s30 (
#610
1$
#620
0$
s31 (
#630
1$
#640
0$
s32 (
#650
1$
#660
0$
s33 (
#670
1$
#680
0$
s34 (
#690
1$
#700
0$
s35 (
#710
1$
#720
0$
s36 (
#730
1$
#740
b0101110010100010 /
0$
b0101110010100010 )
1%
b00000011 +
b1001000101001010 !
b1000010011010010 "
s37 (
#745
0%
#750
1$
#760
b1001010111011010 1
0$
b1001010111011010 )
1%
b00000100 +
b1010110110100010 !
b0101010011000011 "
s38 (
#765
0%
#770
1$
#780
b0000010010000010 2
0$
b0000010010000010 )
1%
b00000101 +
b1010000111101110 !
b0001011111000100 "
s39 (
#785
0%
#790
1$
#800
b1011011000101010 0
0$
b1011011000101010 )
1%
b00000110 +
b1011010010000101 !
b0101110101110001 "
s40 (
b0000000000000110 )
b00000111 +
b1001000101000101 !
b0100110110111001 "
b0000000000000111 )
b00001000 +
b1010101001101011 !
b0000110010001101 "
b0000000000001000 )
b00001001 +
b0011101101001000 !
b1110010101101011 "
b0000000000001001 )
b00001010 +
b1010000100011110 !
b0000000001001100 "
b0000000000001010 )
b00001011 +
b0111100101011001 !
b0100111111011001 "
b0000000000001011 )
b00001100 +
b0111101000100011 !
b0010011010010011 "
b0000000000001100 )
b00001101 +
b0111010101101001 !
b0010100001010011 "
b0000000000001101 )
b00001110 +
b1010111010011010 !
b1101110100101001 "
b0000000000001110 )
b00001111 +
b1011110110011010 !
b1001000010111000 "
#805
0%
#810
1$
#820
0$
s41 (
#830
1$
#840
0$
s42 (
#850
1$
#860
0$
s43 (
#870
1$
#880
0$
s44 (
#890
1$
#900
0$
s45 (
#910
1$
#920
0$
s46 (
#930
1$
#940
0$
s47 (
#950
1$
#960
0$
s48 (
#970
1$
#980
0$
s49 (
#990
1$
#1000
0$
s50 (
#1010
1$
#1020
0$
s51 (
#1030
1$
#1040
0$
s52 (
#1050
1$
#1060
0$
s53 (
#1070
1$
#1080
0$
s54 (
#1090
1$
#1100
0$
s55 (
#1110
1$
#1120
0$
s56 (
#1130
1$
#1140
0$
s57 (
#1150
1$
#1160
0$
s58 (
#1170
1$
#1180
0$
s59 (
#1190
1$
#1200
0$
s60 (
#1210
1$
#1220
0$
s61 (
#1230
1$
#1240
0$
s62 (
#1250
1$
#1260
0$
s63 (
#1270
1$
#1280
0$
s64 (
#1290
1$
#1300
0$
s65 (
#1310
1$
#1320
0$
s66 (
#1330
1$
#1340
0$
s67 (
#1350
1$
#1360
0$
s68 (
#1370
1$
#1380
0$
s69 (
#1390
1$
#1400
0$
s70 (
#1410
1$
#1420
0$
s71 (
#1430
1$
#1440
0$
s72 (
#1450
1$
#1460
0$
s73 (
#1470
1$
#1480
0$
s74 (
#1490
1$
#1500
b0111101110000010 ,
0$
b0111101110000010 )
1%
b00010000 +
b0101110111100110 !
b1100111011101110 "
s75 (
#1505
0%
#1510
1$
#1520
0$
s76 (
#1530
1$
#1540
0$
s77 (
#1550
1$
#1560
0$
s78 (
#1570
1$
#1580
0$
s79 (
#1590
1$
#1600
0$
s80 (
#1610
1$
#1620
0$
s81 (
#1630
1$
#1640
0$
s82 (
#1650
1$
#1660
0$
s83 (
#1670
1$
#1680
0$
s84 (
#1690
1$
#1700
0$
s85 (
#1710
1$
#1720
0$
s86 (
#1730
1$
#1740
0$
s87 (
#1750
1$
#1760
0$
s88 (
#1770
1$
#1780
0$
s89 (
#1790
1$
#1800
0$
s90 (
#1810
1$
#1820
0$
s91 (
#1830
1$
#1840
0$
s92 (
#1850
1$
#1860
0$
s93 (
#1870
1$
#1880
0$
s94 (
#1890
1$
#1900
0$
s95 (
#1910
1$
#1920
0$
s96 (
#1930
1$
#1940
0$
s97 (
#1950
1$
#1960
0$
s98 (
#1970
1$
#1980
0$
s99 (
#1990
1$
#2000
0$
s100 (
