code/Memory/RAM/RAM_testbench.vcd
$date
    Sat May 28 12:46:28 2016
$end
$version
    MyHDL 0.9.0
$end
$timescale
    1ns
$end

$scope module RAM_testbench $end
$var reg 4 ! count $end
$var reg 1 " we $end
$var reg 1 # clk $end
$var reg 8 $ addr1 $end
$var reg 16 % din $end
$var reg 16 & dout1 $end
$var reg 16 ' dout0 $end
$var reg 8 ( addr0 $end
$var reg 16 ) dout2 $end
$var reg 8 * addr2 $end
$var reg 4 + cycle $end
$scope module ram_inst $end
$var reg 1 " we $end
$var reg 1 # clk $end
$var reg 8 $ addr1 $end
$var reg 16 % din $end
$var reg 16 & dout1 $end
$var reg 16 ' dout0 $end
$var reg 8 ( addr0 $end
$var reg 16 ) dout2 $end
$var reg 8 * addr2 $end
$var reg 16 , mem(0) $end
$var reg 16 - mem(1) $end
$var reg 16 . mem(2) $end
$var reg 16 / mem(3) $end
$var reg 16 0 mem(4) $end
$var reg 16 1 mem(5) $end
$var reg 16 2 mem(6) $end
$var reg 16 3 mem(7) $end
$var reg 16 4 mem(8) $end
$var reg 16 5 mem(9) $end
$var reg 16 6 mem(10) $end
$var reg 16 7 mem(11) $end
$var reg 16 8 mem(12) $end
$var reg 16 9 mem(13) $end
$var reg 16 : mem(14) $end
$var reg 16 ; mem(15) $end
$var reg 16 < mem(16) $end
$var reg 16 = mem(17) $end
$var reg 16 > mem(18) $end
$var reg 16 ? mem(19) $end
$var reg 16 @ mem(20) $end
$var reg 16 A mem(21) $end
$var reg 16 B mem(22) $end
$var reg 16 C mem(23) $end
$var reg 16 D mem(24) $end
$var reg 16 E mem(25) $end
$var reg 16 F mem(26) $end
$var reg 16 G mem(27) $end
$var reg 16 H mem(28) $end
$var reg 16 I mem(29) $end
$var reg 16 J mem(30) $end
$var reg 16 K mem(31) $end
$var reg 16 L mem(32) $end
$var reg 16 M mem(33) $end
$var reg 16 N mem(34) $end
$var reg 16 O mem(35) $end
$var reg 16 P mem(36) $end
$var reg 16 Q mem(37) $end
$var reg 16 R mem(38) $end
$var reg 16 S mem(39) $end
$var reg 16 T mem(40) $end
$var reg 16 U mem(41) $end
$var reg 16 V mem(42) $end
$var reg 16 W mem(43) $end
$var reg 16 X mem(44) $end
$var reg 16 Y mem(45) $end
$var reg 16 Z mem(46) $end
$var reg 16 [ mem(47) $end
$var reg 16 \ mem(48) $end
$var reg 16 ] mem(49) $end
$var reg 16 ^ mem(50) $end
$var reg 16 _ mem(51) $end
$var reg 16 ` mem(52) $end
$var reg 16 a mem(53) $end
$var reg 16 b mem(54) $end
$var reg 16 c mem(55) $end
$var reg 16 d mem(56) $end
$var reg 16 e mem(57) $end
$var reg 16 f mem(58) $end
$var reg 16 g mem(59) $end
$var reg 16 h mem(60) $end
$var reg 16 i mem(61) $end
$var reg 16 j mem(62) $end
$var reg 16 k mem(63) $end
$var reg 16 l mem(64) $end
$var reg 16 m mem(65) $end
$var reg 16 n mem(66) $end
$var reg 16 o mem(67) $end
$var reg 16 p mem(68) $end
$var reg 16 q mem(69) $end
$var reg 16 r mem(70) $end
$var reg 16 s mem(71) $end
$var reg 16 t mem(72) $end
$var reg 16 u mem(73) $end
$var reg 16 v mem(74) $end
$var reg 16 w mem(75) $end
$var reg 16 x mem(76) $end
$var reg 16 y mem(77) $end
$var reg 16 z mem(78) $end
$var reg 16 { mem(79) $end
$var reg 16 | mem(80) $end
$var reg 16 } mem(81) $end
$var reg 16 ~ mem(82) $end
$var reg 16 "! mem(83) $end
$var reg 16 "" mem(84) $end
$var reg 16 "# mem(85) $end
$var reg 16 "$ mem(86) $end
$var reg 16 "% mem(87) $end
$var reg 16 "& mem(88) $end
$var reg 16 "' mem(89) $end
$var reg 16 "( mem(90) $end
$var reg 16 ") mem(91) $end
$var reg 16 "* mem(92) $end
$var reg 16 "+ mem(93) $end
$var reg 16 ", mem(94) $end
$var reg 16 "- mem(95) $end
$var reg 16 ". mem(96) $end
$var reg 16 "/ mem(97) $end
$var reg 16 "0 mem(98) $end
$var reg 16 "1 mem(99) $end
$var reg 16 "2 mem(100) $end
$var reg 16 "3 mem(101) $end
$var reg 16 "4 mem(102) $end
$var reg 16 "5 mem(103) $end
$var reg 16 "6 mem(104) $end
$var reg 16 "7 mem(105) $end
$var reg 16 "8 mem(106) $end
$var reg 16 "9 mem(107) $end
$var reg 16 ": mem(108) $end
$var reg 16 "; mem(109) $end
$var reg 16 "< mem(110) $end
$var reg 16 "= mem(111) $end
$var reg 16 "> mem(112) $end
$var reg 16 "? mem(113) $end
$var reg 16 "@ mem(114) $end
$var reg 16 "A mem(115) $end
$var reg 16 "B mem(116) $end
$var reg 16 "C mem(117) $end
$var reg 16 "D mem(118) $end
$var reg 16 "E mem(119) $end
$var reg 16 "F mem(120) $end
$var reg 16 "G mem(121) $end
$var reg 16 "H mem(122) $end
$var reg 16 "I mem(123) $end
$var reg 16 "J mem(124) $end
$var reg 16 "K mem(125) $end
$var reg 16 "L mem(126) $end
$var reg 16 "M mem(127) $end
$var reg 16 "N mem(128) $end
$var reg 16 "O mem(129) $end
$var reg 16 "P mem(130) $end
$var reg 16 "Q mem(131) $end
$var reg 16 "R mem(132) $end
$var reg 16 "S mem(133) $end
$var reg 16 "T mem(134) $end
$var reg 16 "U mem(135) $end
$var reg 16 "V mem(136) $end
$var reg 16 "W mem(137) $end
$var reg 16 "X mem(138) $end
$var reg 16 "Y mem(139) $end
$var reg 16 "Z mem(140) $end
$var reg 16 "[ mem(141) $end
$var reg 16 "\ mem(142) $end
$var reg 16 "] mem(143) $end
$var reg 16 "^ mem(144) $end
$var reg 16 "_ mem(145) $end
$var reg 16 "` mem(146) $end
$var reg 16 "a mem(147) $end
$var reg 16 "b mem(148) $end
$var reg 16 "c mem(149) $end
$var reg 16 "d mem(150) $end
$var reg 16 "e mem(151) $end
$var reg 16 "f mem(152) $end
$var reg 16 "g mem(153) $end
$var reg 16 "h mem(154) $end
$var reg 16 "i mem(155) $end
$var reg 16 "j mem(156) $end
$var reg 16 "k mem(157) $end
$var reg 16 "l mem(158) $end
$var reg 16 "m mem(159) $end
$var reg 16 "n mem(160) $end
$var reg 16 "o mem(161) $end
$var reg 16 "p mem(162) $end
$var reg 16 "q mem(163) $end
$var reg 16 "r mem(164) $end
$var reg 16 "s mem(165) $end
$var reg 16 "t mem(166) $end
$var reg 16 "u mem(167) $end
$var reg 16 "v mem(168) $end
$var reg 16 "w mem(169) $end
$var reg 16 "x mem(170) $end
$var reg 16 "y mem(171) $end
$var reg 16 "z mem(172) $end
$var reg 16 "{ mem(173) $end
$var reg 16 "| mem(174) $end
$var reg 16 "} mem(175) $end
$var reg 16 "~ mem(176) $end
$var reg 16 #! mem(177) $end
$var reg 16 #" mem(178) $end
$var reg 16 ## mem(179) $end
$var reg 16 #$ mem(180) $end
$var reg 16 #% mem(181) $end
$var reg 16 #& mem(182) $end
$var reg 16 #' mem(183) $end
$var reg 16 #( mem(184) $end
$var reg 16 #) mem(185) $end
$var reg 16 #* mem(186) $end
$var reg 16 #+ mem(187) $end
$var reg 16 #, mem(188) $end
$var reg 16 #- mem(189) $end
$var reg 16 #. mem(190) $end
$var reg 16 #/ mem(191) $end
$var reg 16 #0 mem(192) $end
$var reg 16 #1 mem(193) $end
$var reg 16 #2 mem(194) $end
$var reg 16 #3 mem(195) $end
$var reg 16 #4 mem(196) $end
$var reg 16 #5 mem(197) $end
$var reg 16 #6 mem(198) $end
$var reg 16 #7 mem(199) $end
$var reg 16 #8 mem(200) $end
$var reg 16 #9 mem(201) $end
$var reg 16 #: mem(202) $end
$var reg 16 #; mem(203) $end
$var reg 16 #< mem(204) $end
$var reg 16 #= mem(205) $end
$var reg 16 #> mem(206) $end
$var reg 16 #? mem(207) $end
$var reg 16 #@ mem(208) $end
$var reg 16 #A mem(209) $end
$var reg 16 #B mem(210) $end
$var reg 16 #C mem(211) $end
$var reg 16 #D mem(212) $end
$var reg 16 #E mem(213) $end
$var reg 16 #F mem(214) $end
$var reg 16 #G mem(215) $end
$var reg 16 #H mem(216) $end
$var reg 16 #I mem(217) $end
$var reg 16 #J mem(218) $end
$var reg 16 #K mem(219) $end
$var reg 16 #L mem(220) $end
$var reg 16 #M mem(221) $end
$var reg 16 #N mem(222) $end
$var reg 16 #O mem(223) $end
$var reg 16 #P mem(224) $end
$var reg 16 #Q mem(225) $end
$var reg 16 #R mem(226) $end
$var reg 16 #S mem(227) $end
$var reg 16 #T mem(228) $end
$var reg 16 #U mem(229) $end
$var reg 16 #V mem(230) $end
$var reg 16 #W mem(231) $end
$var reg 16 #X mem(232) $end
$var reg 16 #Y mem(233) $end
$var reg 16 #Z mem(234) $end
$var reg 16 #[ mem(235) $end
$var reg 16 #\ mem(236) $end
$var reg 16 #] mem(237) $end
$var reg 16 #^ mem(238) $end
$var reg 16 #_ mem(239) $end
$var reg 16 #` mem(240) $end
$var reg 16 #a mem(241) $end
$var reg 16 #b mem(242) $end
$var reg 16 #c mem(243) $end
$var reg 16 #d mem(244) $end
$var reg 16 #e mem(245) $end
$var reg 16 #f mem(246) $end
$var reg 16 #g mem(247) $end
$var reg 16 #h mem(248) $end
$var reg 16 #i mem(249) $end
$var reg 16 #j mem(250) $end
$var reg 16 #k mem(251) $end
$var reg 16 #l mem(252) $end
$var reg 16 #m mem(253) $end
$var reg 16 #n mem(254) $end
$var reg 16 #o mem(255) $end
$upscope $end
$upscope $end

$enddefinitions $end
$dumpvars
b0000 !
0"
0#
b00000000 $
b0000000000000000 %
b0000000000000000 &
b0000000000000000 '
b00000000 (
b0000000000000000 )
b00000000 *
b0000 +
b0000000000000000 ,
b0000000000000000 -
b0000000000000000 .
b0000000000000000 /
b0000000000000000 0
b0000000000000000 1
b0000000000000000 2
b0000000000000000 3
b0000000000000000 4
b0000000000000000 5
b0000000000000000 6
b0000000000000000 7
b0000000000000000 8
b0000000000000000 9
b0000000000000000 :
b0000000000000000 ;
b0000000000000000 <
b0000000000000000 =
b0000000000000000 >
b0000000000000000 ?
b0000000000000000 @
b0000000000000000 A
b0000000000000000 B
b0000000000000000 C
b0000000000000000 D
b0000000000000000 E
b0000000000000000 F
b0000000000000000 G
b0000000000000000 H
b0000000000000000 I
b0000000000000000 J
b0000000000000000 K
b0000000000000000 L
b0000000000000000 M
b0000000000000000 N
b0000000000000000 O
b0000000000000000 P
b0000000000000000 Q
b0000000000000000 R
b0000000000000000 S
b0000000000000000 T
b0000000000000000 U
b0000000000000000 V
b0000000000000000 W
b0000000000000000 X
b0000000000000000 Y
b0000000000000000 Z
b0000000000000000 [
b0000000000000000 \
b0000000000000000 ]
b0000000000000000 ^
b0000000000000000 _
b0000000000000000 `
b0000000000000000 a
b0000000000000000 b
b0000000000000000 c
b0000000000000000 d
b0000000000000000 e
b0000000000000000 f
b0000000000000000 g
b0000000000000000 h
b0000000000000000 i
b0000000000000000 j
b0000000000000000 k
b0000000000000000 l
b0000000000000000 m
b0000000000000000 n
b0000000000000000 o
b0000000000000000 p
b0000000000000000 q
b0000000000000000 r
b0000000000000000 s
b0000000000000000 t
b0000000000000000 u
b0000000000000000 v
b0000000000000000 w
b0000000000000000 x
b0000000000000000 y
b0000000000000000 z
b0000000000000000 {
b0000000000000000 |
b0000000000000000 }
b0000000000000000 ~
b0000000000000000 "!
b0000000000000000 ""
b0000000000000000 "#
b0000000000000000 "$
b0000000000000000 "%
b0000000000000000 "&
b0000000000000000 "'
b0000000000000000 "(
b0000000000000000 ")
b0000000000000000 "*
b0000000000000000 "+
b0000000000000000 ",
b0000000000000000 "-
b0000000000000000 ".
b0000000000000000 "/
b0000000000000000 "0
b0000000000000000 "1
b0000000000000000 "2
b0000000000000000 "3
b0000000000000000 "4
b0000000000000000 "5
b0000000000000000 "6
b0000000000000000 "7
b0000000000000000 "8
b0000000000000000 "9
b0000000000000000 ":
b0000000000000000 ";
b0000000000000000 "<
b0000000000000000 "=
b0000000000000000 ">
b0000000000000000 "?
b0000000000000000 "@
b0000000000000000 "A
b0000000000000000 "B
b0000000000000000 "C
b0000000000000000 "D
b0000000000000000 "E
b0000000000000000 "F
b0000000000000000 "G
b0000000000000000 "H
b0000000000000000 "I
b0000000000000000 "J
b0000000000000000 "K
b0000000000000000 "L
b0000000000000000 "M
b0000000000000000 "N
b0000000000000000 "O
b0000000000000000 "P
b0000000000000000 "Q
b0000000000000000 "R
b0000000000000000 "S
b0000000000000000 "T
b0000000000000000 "U
b0000000000000000 "V
b0000000000000000 "W
b0000000000000000 "X
b0000000000000000 "Y
b0000000000000000 "Z
b0000000000000000 "[
b0000000000000000 "\
b0000000000000000 "]
b0000000000000000 "^
b0000000000000000 "_
b0000000000000000 "`
b0000000000000000 "a
b0000000000000000 "b
b0000000000000000 "c
b0000000000000000 "d
b0000000000000000 "e
b0000000000000000 "f
b0000000000000000 "g
b0000000000000000 "h
b0000000000000000 "i
b0000000000000000 "j
b0000000000000000 "k
b0000000000000000 "l
b0000000000000000 "m
b0000000000000000 "n
b0000000000000000 "o
b0000000000000000 "p
b0000000000000000 "q
b0000000000000000 "r
b0000000000000000 "s
b0000000000000000 "t
b0000000000000000 "u
b0000000000000000 "v
b0000000000000000 "w
b0000000000000000 "x
b0000000000000000 "y
b0000000000000000 "z
b0000000000000000 "{
b0000000000000000 "|
b0000000000000000 "}
b0000000000000000 "~
b0000000000000000 #!
b0000000000000000 #"
b0000000000000000 ##
b0000000000000000 #$
b0000000000000000 #%
b0000000000000000 #&
b0000000000000000 #'
b0000000000000000 #(
b0000000000000000 #)
b0000000000000000 #*
b0000000000000000 #+
b0000000000000000 #,
b0000000000000000 #-
b0000000000000000 #.
b0000000000000000 #/
b0000000000000000 #0
b0000000000000000 #1
b0000000000000000 #2
b0000000000000000 #3
b0000000000000000 #4
b0000000000000000 #5
b0000000000000000 #6
b0000000000000000 #7
b0000000000000000 #8
b0000000000000000 #9
b0000000000000000 #:
b0000000000000000 #;
b0000000000000000 #<
b0000000000000000 #=
b0000000000000000 #>
b0000000000000000 #?
b0000000000000000 #@
b0000000000000000 #A
b0000000000000000 #B
b0000000000000000 #C
b0000000000000000 #D
b0000000000000000 #E
b0000000000000000 #F
b0000000000000000 #G
b0000000000000000 #H
b0000000000000000 #I
b0000000000000000 #J
b0000000000000000 #K
b0000000000000000 #L
b0000000000000000 #M
b0000000000000000 #N
b0000000000000000 #O
b0000000000000000 #P
b0000000000000000 #Q
b0000000000000000 #R
b0000000000000000 #S
b0000000000000000 #T
b0000000000000000 #U
b0000000000000000 #V
b0000000000000000 #W
b0000000000000000 #X
b0000000000000000 #Y
b0000000000000000 #Z
b0000000000000000 #[
b0000000000000000 #\
b0000000000000000 #]
b0000000000000000 #^
b0000000000000000 #_
b0000000000000000 #`
b0000000000000000 #a
b0000000000000000 #b
b0000000000000000 #c
b0000000000000000 #d
b0000000000000000 #e
b0000000000000000 #f
b0000000000000000 #g
b0000000000000000 #h
b0000000000000000 #i
b0000000000000000 #j
b0000000000000000 #k
b0000000000000000 #l
b0000000000000000 #m
b0000000000000000 #n
b0000000000000000 #o
$end
#10
1#
b0001 !
1"
#20
0#
#30
1#
b00000001 (
b00000001 $
b00000001 *
b0000000000000001 %
b0010 !
#40
0#
#50
1#
b0000000000000001 -
b0011 !
b00000010 (
b00000010 $
b00000010 *
b0000000000000010 %
#60
0#
#70
1#
b00000011 (
b00000011 $
b00000011 *
b0000000000000011 %
b0100 !
b0000000000000010 .
#80
0#
#90
1#
b0000000000000011 /
b0101 !
b00000100 (
b00000100 $
b00000100 *
b0000000000000100 %
#100
0#
#110
1#
b00000101 (
b00000101 $
b00000101 *
b0000000000000101 %
b0110 !
b0000000000000100 0
#120
0#
#130
1#
b0000000000000101 1
b0111 !
b00000110 (
b00000110 $
b00000110 *
b0000000000000110 %
#140
0#
#150
1#
b00000111 (
b00000111 $
b00000111 *
b0000000000000111 %
b1000 !
b0000000000000110 2
#160
0#
#170
1#
b0000000000000111 3
b1001 !
b00001000 (
b00001000 $
b00001000 *
b0000000000001000 %
#180
0#
#190
1#
b00001001 (
b00001001 $
b00001001 *
b0000000000001001 %
b1010 !
b0000000000001000 4
#200
0#
#210
1#
b0000000000001001 5
b1011 !
b00001010 (
b00001010 $
b00001010 *
b0000000000001010 %
#220
0#
#230
1#
b00001011 (
b00001011 $
b00001011 *
b0000000000001011 %
b1100 !
b0000000000001010 6
#240
0#
#250
1#
b0000000000001011 7
b1101 !
b00001100 (
b00001100 $
b00001100 *
b0000000000001100 %
#260
0#
#270
1#
b00001101 (
b00001101 $
b00001101 *
b0000000000001101 %
b1110 !
b0000000000001100 8
#280
0#
#290
1#
b0000000000001101 9
b1111 !
b00001110 (
b00001110 $
b00001110 *
b0000000000001110 %
#300
0#
#310
1#
b00001111 (
b00001111 $
b00001111 *
b0000000000001111 %
b0000 !
b0001 +
b0000000000001110 :
#320
0#
#330
1#
b0000000000001111 ;
b0001 !
b00000000 (
b00000000 $
b00000000 *
b0000000000000000 %
0"
#340
0#
#350
1#
b00000001 (
b00000001 $
b00000001 *
b0000000000000001 %
b0010 !
b0000000000000001 '
b0000000000000001 &
b0000000000000001 )
#360
0#
#370
1#
b0011 !
b00000010 (
b00000010 $
b00000010 *
b0000000000000010 %
b0000000000000010 '
b0000000000000010 &
b0000000000000010 )
#380
0#
#390
1#
b00000011 (
b00000011 $
b00000011 *
b0000000000000011 %
b0100 !
b0000000000000011 '
b0000000000000011 &
b0000000000000011 )
#400
0#
#410
1#
b0101 !
b00000100 (
b00000100 $
b00000100 *
b0000000000000100 %
b0000000000000100 '
b0000000000000100 &
b0000000000000100 )
#420
0#
#430
1#
b00000101 (
b00000101 $
b00000101 *
b0000000000000101 %
b0110 !
b0000000000000101 '
b0000000000000101 &
b0000000000000101 )
#440
0#
#450
1#
b0111 !
b00000110 (
b00000110 $
b00000110 *
b0000000000000110 %
b0000000000000110 '
b0000000000000110 &
b0000000000000110 )
#460
0#
#470
1#
b00000111 (
b00000111 $
b00000111 *
b0000000000000111 %
b1000 !
b0000000000000111 '
b0000000000000111 &
b0000000000000111 )
#480
0#
#490
1#
b1001 !
b00001000 (
b00001000 $
b00001000 *
b0000000000001000 %
b0000000000001000 '
b0000000000001000 &
b0000000000001000 )
#500
0#
#510
1#
b00001001 (
b00001001 $
b00001001 *
b0000000000001001 %
b1010 !
b0000000000001001 '
b0000000000001001 &
b0000000000001001 )
#520
0#
#530
1#
b1011 !
b00001010 (
b00001010 $
b00001010 *
b0000000000001010 %
b0000000000001010 '
b0000000000001010 &
b0000000000001010 )
#540
0#
#550
1#
b00001011 (
b00001011 $
b00001011 *
b0000000000001011 %
b1100 !
b0000000000001011 '
b0000000000001011 &
b0000000000001011 )
#560
0#
#570
1#
b1101 !
b00001100 (
b00001100 $
b00001100 *
b0000000000001100 %
b0000000000001100 '
b0000000000001100 &
b0000000000001100 )
#580
0#
#590
1#
b00001101 (
b00001101 $
b00001101 *
b0000000000001101 %
b1110 !
b0000000000001101 '
b0000000000001101 &
b0000000000001101 )
#600
0#
#610
1#
b1111 !
b00001110 (
b00001110 $
b00001110 *
b0000000000001110 %
b0000000000001110 '
b0000000000001110 &
b0000000000001110 )
#620
0#
#630
1#
b00001111 (
b00001111 $
b00001111 *
b0000000000001111 %
b0000 !
b0010 +
b0000000000001111 '
b0000000000001111 &
b0000000000001111 )
#640
0#
#650
1#
b0001 !
b00000000 (
b00000000 $
b00000000 *
b0000000000000000 %
b0000000000000000 '
b0000000000000000 &
b0000000000000000 )
#660
0#
#670
1#
b00000001 (
b00000001 $
b00000001 *
b0000000000000001 %
b0010 !
b0000000000000001 '
b0000000000000001 &
b0000000000000001 )
#680
0#
#690
1#
b0011 !
b00000010 (
b00000010 $
b00000010 *
b0000000000000010 %
b0000000000000010 '
b0000000000000010 &
b0000000000000010 )
#700
0#
#710
1#
b00000011 (
b00000011 $
b00000011 *
b0000000000000011 %
b0100 !
b0000000000000011 '
b0000000000000011 &
b0000000000000011 )
#720
0#
#730
1#
b0101 !
b00000100 (
b00000100 $
b00000100 *
b0000000000000100 %
b0000000000000100 '
b0000000000000100 &
b0000000000000100 )
#740
0#
#750
1#
b00000101 (
b00000101 $
b00000101 *
b0000000000000101 %
b0110 !
b0000000000000101 '
b0000000000000101 &
b0000000000000101 )
#760
0#
#770
1#
b0111 !
b00000110 (
b00000110 $
b00000110 *
b0000000000000110 %
b0000000000000110 '
b0000000000000110 &
b0000000000000110 )
#780
0#
#790
1#
b00000111 (
b00000111 $
b00000111 *
b0000000000000111 %
b1000 !
b0000000000000111 '
b0000000000000111 &
b0000000000000111 )
#800
0#
#810
1#
b1001 !
b00001000 (
b00001000 $
b00001000 *
b0000000000001000 %
b0000000000001000 '
b0000000000001000 &
b0000000000001000 )
#820
0#
#830
1#
b00001001 (
b00001001 $
b00001001 *
b0000000000001001 %
b1010 !
b0000000000001001 '
b0000000000001001 &
b0000000000001001 )
#840
0#
#850
1#
b1011 !
b00001010 (
b00001010 $
b00001010 *
b0000000000001010 %
b0000000000001010 '
b0000000000001010 &
b0000000000001010 )
#860
0#
#870
1#
b00001011 (
b00001011 $
b00001011 *
b0000000000001011 %
b1100 !
b0000000000001011 '
b0000000000001011 &
b0000000000001011 )
#880
0#
#890
1#
b1101 !
b00001100 (
b00001100 $
b00001100 *
b0000000000001100 %
b0000000000001100 '
b0000000000001100 &
b0000000000001100 )
#900
0#
#910
1#
b00001101 (
b00001101 $
b00001101 *
b0000000000001101 %
b1110 !
b0000000000001101 '
b0000000000001101 &
b0000000000001101 )
#920
0#
#930
1#
b1111 !
b00001110 (
b00001110 $
b00001110 *
b0000000000001110 %
b0000000000001110 '
b0000000000001110 &
b0000000000001110 )
#940
0#
#950
1#
b00001111 (
b00001111 $
b00001111 *
b0000000000001111 %
b0000 !
b0011 +
b0000000000001111 '
b0000000000001111 &
b0000000000001111 )
#960
0#
#970
1#
b0001 !
b00000000 (
b00000000 $
b00000000 *
b0000000000000000 %
b0000000000000000 '
b0000000000000000 &
b0000000000000000 )
#980
0#
#990
1#
b00000001 (
b00000001 $
b00000001 *
b0000000000000001 %
b0010 !
b0000000000000001 '
b0000000000000001 &
b0000000000000001 )
