code/Memory/RAM/RAM_testbench.vcd
$date
    Wed May 25 19:45:06 2016
$end
$version
    MyHDL 0.9.0
$end
$timescale
    1ns
$end

$scope module RAM_testbench $end
$var reg 4 ! count $end
$var reg 1 " we $end
$var reg 16 # dout $end
$var reg 16 $ addr $end
$var reg 1 % clk $end
$var reg 16 & din $end
$var reg 4 ' cycle $end
$scope module ram_inst $end
$var reg 16 & din $end
$var reg 1 " we $end
$var reg 16 # dout $end
$var reg 16 $ addr $end
$var reg 1 % clk $end
$var reg 16 ( mem(0) $end
$var reg 16 ) mem(1) $end
$var reg 16 * mem(2) $end
$var reg 16 + mem(3) $end
$var reg 16 , mem(4) $end
$var reg 16 - mem(5) $end
$var reg 16 . mem(6) $end
$var reg 16 / mem(7) $end
$var reg 16 0 mem(8) $end
$var reg 16 1 mem(9) $end
$var reg 16 2 mem(10) $end
$var reg 16 3 mem(11) $end
$var reg 16 4 mem(12) $end
$var reg 16 5 mem(13) $end
$var reg 16 6 mem(14) $end
$var reg 16 7 mem(15) $end
$upscope $end
$upscope $end

$enddefinitions $end
$dumpvars
b0000 !
0"
b0000000000000000 #
b0000000000000000 $
0%
b0000000000000000 &
b0000 '
b0000000000000000 (
b0000000000000000 )
b0000000000000000 *
b0000000000000000 +
b0000000000000000 ,
b0000000000000000 -
b0000000000000000 .
b0000000000000000 /
b0000000000000000 0
b0000000000000000 1
b0000000000000000 2
b0000000000000000 3
b0000000000000000 4
b0000000000000000 5
b0000000000000000 6
b0000000000000000 7
$end
#10
1%
b0001 !
1"
#20
0%
#30
1%
b0000000000000001 $
b0000000000000001 &
b0010 !
#40
0%
#50
1%
b0000000000000001 )
b0011 !
b0000000000000010 $
b0000000000000010 &
#60
0%
#70
1%
b0000000000000011 $
b0000000000000011 &
b0100 !
b0000000000000010 *
#80
0%
#90
1%
b0000000000000011 +
b0101 !
b0000000000000100 $
b0000000000000100 &
#100
0%
#110
1%
b0000000000000101 $
b0000000000000101 &
b0110 !
b0000000000000100 ,
#120
0%
#130
1%
b0000000000000101 -
b0111 !
b0000000000000110 $
b0000000000000110 &
#140
0%
#150
1%
b0000000000000111 $
b0000000000000111 &
b1000 !
b0000000000000110 .
#160
0%
#170
1%
b0000000000000111 /
b1001 !
b0000000000001000 $
b0000000000001000 &
#180
0%
#190
1%
b0000000000001001 $
b0000000000001001 &
b1010 !
b0000000000001000 0
#200
0%
#210
1%
b0000000000001001 1
b1011 !
b0000000000001010 $
b0000000000001010 &
#220
0%
#230
1%
b0000000000001011 $
b0000000000001011 &
b1100 !
b0000000000001010 2
#240
0%
#250
1%
b0000000000001011 3
b1101 !
b0000000000001100 $
b0000000000001100 &
#260
0%
#270
1%
b0000000000001101 $
b0000000000001101 &
b1110 !
b0000000000001100 4
#280
0%
#290
1%
b0000000000001101 5
b1111 !
b0000000000001110 $
b0000000000001110 &
#300
0%
#310
1%
b0000000000001111 $
b0000000000001111 &
b0000 !
b0001 '
b0000000000001110 6
#320
0%
#330
1%
b0000000000001111 7
b0001 !
b0000000000000000 $
b0000000000000000 &
0"
#340
0%
#350
1%
b0000000000000001 $
b0000000000000001 &
b0010 !
b0000000000000001 #
#360
0%
#370
1%
b0011 !
b0000000000000010 $
b0000000000000010 &
b0000000000000010 #
#380
0%
#390
1%
b0000000000000011 $
b0000000000000011 &
b0100 !
b0000000000000011 #
#400
0%
#410
1%
b0101 !
b0000000000000100 $
b0000000000000100 &
b0000000000000100 #
#420
0%
#430
1%
b0000000000000101 $
b0000000000000101 &
b0110 !
b0000000000000101 #
#440
0%
#450
1%
b0111 !
b0000000000000110 $
b0000000000000110 &
b0000000000000110 #
#460
0%
#470
1%
b0000000000000111 $
b0000000000000111 &
b1000 !
b0000000000000111 #
#480
0%
#490
1%
b1001 !
b0000000000001000 $
b0000000000001000 &
b0000000000001000 #
#500
0%
#510
1%
b0000000000001001 $
b0000000000001001 &
b1010 !
b0000000000001001 #
#520
0%
#530
1%
b1011 !
b0000000000001010 $
b0000000000001010 &
b0000000000001010 #
#540
0%
#550
1%
b0000000000001011 $
b0000000000001011 &
b1100 !
b0000000000001011 #
#560
0%
#570
1%
b1101 !
b0000000000001100 $
b0000000000001100 &
b0000000000001100 #
#580
0%
#590
1%
b0000000000001101 $
b0000000000001101 &
b1110 !
b0000000000001101 #
#600
0%
#610
1%
b1111 !
b0000000000001110 $
b0000000000001110 &
b0000000000001110 #
#620
0%
#630
1%
b0000000000001111 $
b0000000000001111 &
b0000 !
b0010 '
b0000000000001111 #
#640
0%
#650
1%
b0001 !
b0000000000000000 $
b0000000000000000 &
b0000000000000000 #
#660
0%
#670
1%
b0000000000000001 $
b0000000000000001 &
b0010 !
b0000000000000001 #
#680
0%
#690
1%
b0011 !
b0000000000000010 $
b0000000000000010 &
b0000000000000010 #
#700
0%
#710
1%
b0000000000000011 $
b0000000000000011 &
b0100 !
b0000000000000011 #
#720
0%
#730
1%
b0101 !
b0000000000000100 $
b0000000000000100 &
b0000000000000100 #
#740
0%
#750
1%
b0000000000000101 $
b0000000000000101 &
b0110 !
b0000000000000101 #
#760
0%
#770
1%
b0111 !
b0000000000000110 $
b0000000000000110 &
b0000000000000110 #
#780
0%
#790
1%
b0000000000000111 $
b0000000000000111 &
b1000 !
b0000000000000111 #
#800
0%
#810
1%
b1001 !
b0000000000001000 $
b0000000000001000 &
b0000000000001000 #
#820
0%
#830
1%
b0000000000001001 $
b0000000000001001 &
b1010 !
b0000000000001001 #
#840
0%
#850
1%
b1011 !
b0000000000001010 $
b0000000000001010 &
b0000000000001010 #
#860
0%
#870
1%
b0000000000001011 $
b0000000000001011 &
b1100 !
b0000000000001011 #
#880
0%
#890
1%
b1101 !
b0000000000001100 $
b0000000000001100 &
b0000000000001100 #
#900
0%
#910
1%
b0000000000001101 $
b0000000000001101 &
b1110 !
b0000000000001101 #
#920
0%
#930
1%
b1111 !
b0000000000001110 $
b0000000000001110 &
b0000000000001110 #
#940
0%
#950
1%
b0000000000001111 $
b0000000000001111 &
b0000 !
b0011 '
b0000000000001111 #
#960
0%
#970
1%
b0001 !
b0000000000000000 $
b0000000000000000 &
b0000000000000000 #
#980
0%
#990
1%
b0000000000000001 $
b0000000000000001 &
b0010 !
b0000000000000001 #
