code/PC/pc_testbench.vcd
$date
    Mon May 23 00:03:02 2016
$end
$version
    MyHDL 0.9.0
$end
$timescale
    1ns
$end

$scope module pc_testbench $end
$var reg 1 ! load $end
$var reg 32 " output $end
$var reg 1 # en $end
$var reg 32 $ addr $end
$var reg 1 % clk $end
$scope module pc_inst $end
$var reg 1 ! load $end
$var reg 32 " output $end
$var reg 1 # en $end
$var reg 32 $ value $end
$upscope $end
$upscope $end

$enddefinitions $end
$dumpvars
0!
b00000000000000000000000000000000 "
0#
b00000000000000000000000000000000 $
0%
$end
#10
1%
#20
0%
1#
b00000000000000000000000000000100 "
#30
1%
#40
0%
0#
#50
1%
#60
0%
1#
b00000000000000000000000000001000 "
#70
1%
#80
0%
0#
#90
1%
#100
0%
1#
b00000000000000000000000000001100 "
#110
1%
1!
b10111110111111000111100000110001 $
b10111110111111000111100000110001 "
#120
0%
0#
#130
1%
0!
b00000000000000000000000000000000 $
#140
0%
1#
b10111110111111000111100000110101 "
#150
1%
#160
0%
0#
#170
1%
#180
0%
1#
b10111110111111000111100000111001 "
#190
1%
#200
0%
0#
#210
1%
#220
0%
1#
b10111110111111000111100000111101 "
#230
1%
#240
0%
0#
#250
1%
#260
0%
1#
b10111110111111000111100001000001 "
#270
1%
#280
0%
0#
#290
1%
#300
0%
1#
b10111110111111000111100001000101 "
#310
1%
#320
0%
0#
#330
1%
#340
0%
1#
b10111110111111000111100001001001 "
#350
1%
#360
0%
0#
#370
1%
#380
0%
1#
b10111110111111000111100001001101 "
#390
1%
#400
0%
0#
#410
1%
#420
0%
1#
b10111110111111000111100001010001 "
#430
1%
#440
0%
0#
#450
1%
#460
0%
1#
b10111110111111000111100001010101 "
#470
1%
#480
0%
0#
#490
1%
#500
0%
1#
b10111110111111000111100001011001 "
#510
1%
#520
0%
0#
#530
1%
#540
0%
1#
b10111110111111000111100001011101 "
#550
1%
1!
b10011111001010111100110010000110 $
b10011111001010111100110010000110 "
#560
0%
0#
#570
1%
0!
b00000000000000000000000000000000 $
#580
0%
1#
b10011111001010111100110010001010 "
#590
1%
#600
0%
0#
#610
1%
#620
0%
1#
b10011111001010111100110010001110 "
#630
1%
#640
0%
0#
#650
1%
#660
0%
1#
b10011111001010111100110010010010 "
#670
1%
#680
0%
0#
#690
1%
#700
0%
1#
b10011111001010111100110010010110 "
#710
1%
#720
0%
0#
#730
1%
#740
0%
1#
b10011111001010111100110010011010 "
#750
1%
#760
0%
0#
#770
1%
#780
0%
1#
b10011111001010111100110010011110 "
#790
1%
#800
0%
0#
#810
1%
#820
0%
1#
b10011111001010111100110010100010 "
#830
1%
#840
0%
0#
#850
1%
#860
0%
1#
b10011111001010111100110010100110 "
#870
1%
#880
0%
0#
#890
1%
#900
0%
1#
b10011111001010111100110010101010 "
#910
1%
#920
0%
0#
#930
1%
#940
0%
1#
b10011111001010111100110010101110 "
#950
1%
#960
0%
0#
#970
1%
#980
0%
1#
b10011111001010111100110010110010 "
#990
1%
1!
b01111100001101010101010011110111 $
b01111100001101010101010011110111 "
#1000
0%
0#
#1010
1%
0!
b00000000000000000000000000000000 $
#1020
0%
1#
b01111100001101010101010011111011 "
#1030
1%
#1040
0%
0#
#1050
1%
#1060
0%
1#
b01111100001101010101010011111111 "
#1070
1%
#1080
0%
0#
#1090
1%
#1100
0%
1#
b01111100001101010101010100000011 "
#1110
1%
#1120
0%
0#
#1130
1%
#1140
0%
1#
b01111100001101010101010100000111 "
#1150
1%
#1160
0%
0#
#1170
1%
#1180
0%
1#
b01111100001101010101010100001011 "
#1190
1%
#1200
0%
0#
#1210
1%
#1220
0%
1#
b01111100001101010101010100001111 "
#1230
1%
#1240
0%
0#
#1250
1%
#1260
0%
1#
b01111100001101010101010100010011 "
#1270
1%
#1280
0%
0#
#1290
1%
#1300
0%
1#
b01111100001101010101010100010111 "
#1310
1%
#1320
0%
0#
#1330
1%
#1340
0%
1#
b01111100001101010101010100011011 "
#1350
1%
#1360
0%
0#
#1370
1%
#1380
0%
1#
b01111100001101010101010100011111 "
#1390
1%
#1400
0%
0#
#1410
1%
#1420
0%
1#
b01111100001101010101010100100011 "
#1430
1%
1!
b01001111001110011111010001111101 $
b01001111001110011111010001111101 "
#1440
0%
0#
#1450
1%
0!
b00000000000000000000000000000000 $
#1460
0%
1#
b01001111001110011111010010000001 "
#1470
1%
#1480
0%
0#
#1490
1%
#1500
0%
1#
b01001111001110011111010010000101 "
#1510
1%
#1520
0%
0#
#1530
1%
#1540
0%
1#
b01001111001110011111010010001001 "
#1550
1%
#1560
0%
0#
#1570
1%
#1580
0%
1#
b01001111001110011111010010001101 "
#1590
1%
#1600
0%
0#
#1610
1%
#1620
0%
1#
b01001111001110011111010010010001 "
#1630
1%
#1640
0%
0#
#1650
1%
#1660
0%
1#
b01001111001110011111010010010101 "
#1670
1%
#1680
0%
0#
#1690
1%
#1700
0%
1#
b01001111001110011111010010011001 "
#1710
1%
#1720
0%
0#
#1730
1%
#1740
0%
1#
b01001111001110011111010010011101 "
#1750
1%
#1760
0%
0#
#1770
1%
#1780
0%
1#
b01001111001110011111010010100001 "
#1790
1%
#1800
0%
0#
#1810
1%
#1820
0%
1#
b01001111001110011111010010100101 "
#1830
1%
#1840
0%
0#
#1850
1%
#1860
0%
1#
b01001111001110011111010010101001 "
#1870
1%
1!
b00100110110010000110100000011000 $
b00100110110010000110100000011000 "
#1880
0%
0#
#1890
1%
0!
b00000000000000000000000000000000 $
#1900
0%
1#
b00100110110010000110100000011100 "
#1910
1%
#1920
0%
0#
#1930
1%
#1940
0%
1#
b00100110110010000110100000100000 "
#1950
1%
#1960
0%
0#
#1970
1%
#1980
0%
1#
b00100110110010000110100000100100 "
#1990
1%
#2000
0%
0#
